<?xml version="1.0" encoding="utf-8"?>
<!-- Generator: Adobe Illustrator 19.1.0, SVG Export Plug-In . SVG Version: 6.00 Build 0)  -->
<svg version="1.1" id="Capa_1" xmlns="http://www.w3.org/2000/svg" xmlns:xlink="http://www.w3.org/1999/xlink" x="0px" y="0px"
	 viewBox="-410 412.7 201.3 201.3" style="enable-background:new -410 412.7 201.3 201.3;" xml:space="preserve">
<style type="text/css">
	.st0{fill:#667695;}
</style>
<circle class="st0" cx="-314.4" cy="422.8" r="10.1"/>
<circle class="st0" cx="-261" cy="422.8" r="10.1"/>
<path class="st0" d="M-230.9,431.9c-5.1-8.9-14.3-14.2-24.5-14.2v10c6.6,0,12.6,3.4,15.9,9.2c3.3,5.7,3.3,12.6,0,18.3l-32.1,55.6
	c-3.3,5.7-9.3,9.2-15.9,9.2c-6.6,0-12.6-3.4-15.9-9.2l-32.1-55.6c-3.3-5.7-3.3-12.6,0-18.3s9.3-9.2,15.9-9.2v-10
	c-10.2,0-19.4,5.3-24.5,14.2s-5.1,19.5,0,28.3l32.1,55.6c4.3,7.4,11.4,12.3,19.5,13.7v26.8c0,26.2-15.5,47.5-34.5,47.5
	c-19,0-34.5-21.3-34.5-47.5v-31.9c11.4-2.3,20-12.4,20-24.5c0-13.8-11.2-25-25-25s-25,11.2-25,25c0,12.1,8.6,22.2,20,24.5v31.9
	c0,31.7,20,57.5,44.5,57.5c24.5,0,44.5-25.8,44.5-57.5v-26.8c8.2-1.4,15.3-6.3,19.5-13.7l32.1-55.6
	C-225.8,451.4-225.8,440.8-230.9,431.9z"/>
</svg>
