<?xml version="1.0" encoding="utf-8"?>
<!-- Generator: Adobe Illustrator 19.1.0, SVG Export Plug-In . SVG Version: 6.00 Build 0)  -->
<svg version="1.1" id="Capa_1" xmlns="http://www.w3.org/2000/svg" xmlns:xlink="http://www.w3.org/1999/xlink" x="0px" y="0px"
	 viewBox="-292 204.3 205.7 205.7" style="enable-background:new -292 204.3 205.7 205.7;" xml:space="preserve">
<style type="text/css">
	.st0{fill:#667695;}
</style>
<path class="st0" d="M-99.7,289.2l-84.2-82.8c-2.9-2.9-7.6-2.9-10.5,0l-84.2,82.8c-2.2,2.1-2.8,5.4-1.7,8.2c1.2,2.8,3.9,4.7,6.9,4.7
	h7.4v100.4c0,4.1,3.4,7.5,7.5,7.5h138.5c4.1,0,7.5-3.4,7.5-7.5V302.1h7.4c3,0,5.8-1.8,6.9-4.7C-96.9,294.6-97.5,291.3-99.7,289.2z
	 M-163.1,361.5c-10.2,6.1-16.5,13.3-18.7,16c-1.8,2.2-4.5,3.5-7.4,3.5c-2.9,0-5.6-1.3-7.4-3.5c-2.2-2.8-8.5-9.9-18.7-16
	c-12.6-7.5-19-17.2-19-28.7c0-14.1,9.3-29,26.6-29c8,0,14.1,2.7,18.4,5.9c4.3-3.2,10.4-5.9,18.4-5.9c17.3,0,26.6,14.9,26.6,29
	C-144.1,344.3-150.5,354-163.1,361.5z"/>
</svg>
